dt,x,y,position,velocity,acceleration,jerk,heading
0.020000,0.000000,-0.911500,0.000196,0.019602,0.980099,49.004961,0.000000
0.020000,0.000000,-0.911500,0.000196,0.000000,-0.980099,-98.009923,0.000000
0.020000,0.000000,-0.911500,0.000196,0.000000,0.000000,49.004961,0.000000
0.020000,0.000000,-0.911500,0.000196,0.000000,0.000000,0.000000,0.000000
0.020000,0.002781,-0.911500,0.002977,0.139055,6.952729,347.636438,0.000000
0.020000,0.009838,-0.911500,0.010034,0.352836,10.689057,186.816429,0.000000
0.020000,0.019443,-0.911500,0.019639,0.480249,6.370645,-215.920618,0.000000
0.020000,0.031988,-0.911500,0.032184,0.627264,7.350744,49.004961,0.000000
0.020000,0.047866,-0.911500,0.048062,0.793880,8.330843,49.004961,0.000000
0.020000,0.067468,-0.911500,0.067664,0.980099,9.310943,49.004961,0.000000
0.020000,0.091186,-0.911500,0.091382,1.185920,10.291042,49.004961,0.000000
0.020000,0.119413,-0.911500,0.119609,1.411343,11.271141,49.004961,0.000000
0.020000,0.152344,-0.911500,0.152540,1.646567,11.761191,24.502481,0.000000
0.020000,0.189980,-0.911500,0.190176,1.881791,11.761191,0.000000,0.000000
0.020000,0.232320,-0.911500,0.232516,2.117014,11.761191,-0.000000,0.000000
0.020000,0.279365,-0.911500,0.279561,2.352238,11.761191,0.000000,0.000000
0.020000,0.331114,-0.911500,0.331310,2.587462,11.761191,-0.000000,0.000000
0.020000,0.387568,-0.911500,0.387764,2.822686,11.761191,0.000000,0.000000
0.020000,0.448726,-0.911500,0.448922,3.057910,11.761191,-0.000000,0.000000
0.020000,0.514589,-0.911500,0.514785,3.293133,11.761191,0.000000,0.000000
0.020000,0.585156,-0.911500,0.585352,3.528357,11.761191,-0.000000,0.000000
0.020000,0.660428,-0.911500,0.660624,3.763581,11.761191,0.000000,0.000000
0.020000,0.740404,-0.911500,0.740600,3.998805,11.761191,-0.000000,0.000000
0.020000,0.825084,-0.911500,0.825280,4.234029,11.761191,0.000000,0.000000
0.020000,0.914469,-0.911500,0.914665,4.469252,11.761191,0.000000,0.000000
0.020000,1.008559,-0.911500,1.008755,4.704476,11.761191,0.000000,0.000000
0.020000,1.107353,-0.911500,1.107549,4.939700,11.761191,0.000000,0.000000
0.020000,1.210851,-0.911500,1.211047,5.174924,11.761191,-0.000000,0.000000
0.020000,1.319054,-0.911500,1.319250,5.410148,11.761191,0.000000,0.000000
0.020000,1.431962,-0.911500,1.432158,5.645372,11.761191,-0.000000,0.000000
0.020000,1.549574,-0.911500,1.549770,5.880595,11.761191,0.000000,0.000000
0.020000,1.671890,-0.911500,1.672086,6.115819,11.761191,-0.000000,0.000000
0.020000,1.798911,-0.911500,1.799107,6.351043,11.761191,0.000000,0.000000
0.020000,1.930636,-0.911500,1.930832,6.586267,11.761191,-0.000000,0.000000
0.020000,2.067066,-0.911500,2.067262,6.821491,11.761191,0.000000,0.000000
0.020000,2.208200,-0.911500,2.208396,7.056714,11.761191,-0.000000,0.000000
0.020000,2.353843,-0.911500,2.354039,7.282137,11.271141,-24.502481,0.000000
0.020000,2.503602,-0.911500,2.503798,7.487958,10.291042,-49.004961,0.000000
0.020000,2.657086,-0.911500,2.657282,7.674177,9.310943,-49.004961,0.000000
0.020000,2.813902,-0.911500,2.814098,7.840794,8.330843,-49.004961,0.000000
0.020000,2.973658,-0.911500,2.973854,7.987809,7.350744,-49.004961,0.000000
0.020000,3.135962,-0.911500,3.136158,8.115222,6.370645,-49.004961,0.000000
0.020000,3.300423,-0.911500,3.300619,8.223033,5.390546,-49.004961,0.000000
0.020000,3.466648,-0.911500,3.466844,8.311241,4.410447,-49.004961,0.000000
0.020000,3.634245,-0.911500,3.634441,8.379848,3.430347,-49.004961,0.000000
0.020000,3.802822,-0.911500,3.803018,8.428853,2.450248,-49.004961,0.000000
0.020000,3.971987,-0.911500,3.972183,8.458256,1.470149,-49.004961,0.000000
0.020000,4.141208,-0.911500,4.141404,8.461036,0.138964,-66.559220,0.000000
0.020000,4.309951,-0.911500,4.310148,8.437191,-1.192220,-66.559220,0.000000
0.020000,4.477826,-0.911500,4.478022,8.393745,-2.172319,-49.004961,0.000000
0.020000,4.644440,-0.911500,4.644636,8.330696,-3.152418,-49.004961,0.000000
0.020000,4.809401,-0.911500,4.809597,8.248046,-4.132518,-49.004961,0.000000
0.020000,4.972317,-0.911500,4.972513,8.145794,-5.112617,-49.004961,0.000000
0.020000,5.132796,-0.911500,5.132992,8.023939,-6.092716,-49.004961,0.000000
0.020000,5.290446,-0.911500,5.290642,7.882483,-7.072815,-49.004961,0.000000
0.020000,5.444874,-0.911500,5.445070,7.721425,-8.052915,-49.004961,0.000000
0.020000,5.595689,-0.911500,5.595885,7.540765,-9.033014,-49.004961,0.000000
0.020000,5.742499,-0.911500,5.742695,7.340502,-10.013113,-49.004961,0.000000
0.020000,5.884912,-0.911500,5.885108,7.120638,-10.993212,-49.004961,0.000000
0.020000,6.022676,-0.911500,6.022872,6.888194,-11.622226,-31.450703,0.000000
0.020000,6.155735,-0.911500,6.155931,6.652970,-11.761191,-6.948222,0.000000
0.020000,6.284090,-0.911500,6.284286,6.417746,-11.761191,0.000000,0.000000
0.020000,6.407741,-0.911500,6.407937,6.182522,-11.761191,0.000000,0.000000
0.020000,6.526687,-0.911500,6.526883,5.947298,-11.761191,-0.000000,0.000000
0.020000,6.640928,-0.911500,6.641124,5.712074,-11.761191,0.000000,0.000000
0.020000,6.750465,-0.911500,6.750661,5.476851,-11.761191,-0.000000,0.000000
0.020000,6.855298,-0.911500,6.855494,5.241627,-11.761191,0.000000,0.000000
0.020000,6.955426,-0.911500,6.955622,5.006403,-11.761191,0.000000,0.000000
0.020000,7.050849,-0.911500,7.051045,4.771179,-11.761191,0.000000,0.000000
0.020000,7.141569,-0.911500,7.141765,4.535955,-11.761191,0.000000,0.000000
0.020000,7.227583,-0.911500,7.227779,4.300732,-11.761191,0.000000,0.000000
0.020000,7.308893,-0.911500,7.309089,4.065508,-11.761191,-0.000000,0.000000
0.020000,7.385499,-0.911500,7.385695,3.830284,-11.761191,0.000000,0.000000
0.020000,7.457400,-0.911500,7.457596,3.595060,-11.761191,0.000000,0.000000
0.020000,7.524597,-0.911500,7.524793,3.359836,-11.761191,-0.000000,0.000000
0.020000,7.587089,-0.911500,7.587285,3.124613,-11.761191,0.000000,0.000000
0.020000,7.644877,-0.911500,7.645073,2.889389,-11.761191,-0.000000,0.000000
0.020000,7.697960,-0.911500,7.698156,2.654165,-11.761191,0.000000,0.000000
0.020000,7.746339,-0.911500,7.746535,2.418941,-11.761191,0.000000,0.000000
0.020000,7.790013,-0.911500,7.790209,2.183717,-11.761191,0.000000,0.000000
0.020000,7.828983,-0.911500,7.829179,1.948493,-11.761191,0.000000,0.000000
0.020000,7.863249,-0.911500,7.863445,1.713270,-11.761191,0.000000,0.000000
0.020000,7.892810,-0.911500,7.893006,1.478046,-11.761191,0.000000,0.000000
0.020000,7.917806,-0.911500,7.918003,1.249844,-11.410106,17.554258,0.000000
0.020000,7.938576,-0.911500,7.938772,1.038464,-10.568971,42.056739,0.000000
0.020000,7.955510,-0.911500,7.955706,0.846687,-9.588872,49.004961,0.000000
0.020000,7.969000,-0.911500,7.969196,0.674511,-8.608772,49.004961,0.000000
0.020000,7.979438,-0.911500,7.979635,0.521938,-7.628673,49.004961,0.000000
0.020000,7.987218,-0.911500,7.987414,0.388966,-6.648574,49.004961,0.000000
0.020000,7.992730,-0.911500,7.992926,0.275597,-5.668475,49.004961,0.000000
0.020000,7.996366,-0.911500,7.996562,0.181829,-4.688375,49.004961,0.000000
0.020000,7.998520,-0.911500,7.998716,0.107664,-3.708276,49.004961,0.000000
0.020000,7.999582,-0.911500,7.999778,0.053100,-2.728177,49.004961,0.000000
0.020000,7.999944,-0.911500,8.000140,0.018139,-1.748078,49.004961,0.000000
0.020000,8.000000,-0.911500,8.000196,0.002779,-0.767979,49.004961,0.000000
0.020000,8.000000,-0.911500,8.000196,0.000000,-0.138964,31.450703,0.000000
