dt,x,y,position,velocity,acceleration,jerk,heading
0.020000,-0.000464,0.911500,0.000198,0.019841,0.992063,49.603175,0.000509
0.020000,-0.000433,0.911500,0.000229,0.001533,-0.915413,-95.373842,0.000475
0.020000,-0.000364,0.911500,0.000298,0.003446,0.095653,50.553302,0.000400
0.020000,-0.000242,0.911500,0.000420,0.006115,0.133466,1.890690,0.000265
0.020000,-0.000051,0.911500,0.000611,0.009527,0.170595,1.856410,0.000056
0.020000,0.006025,0.911499,0.006687,0.303829,14.715090,727.224748,6.282942
0.020000,0.016117,0.911495,0.016779,0.504590,10.038042,-233.852380,6.282537
0.020000,0.029294,0.911483,0.029956,0.658844,7.712690,-116.267610,6.282012
0.020000,0.045964,0.911458,0.046626,0.833518,8.733737,51.052359,6.281355
0.020000,0.066535,0.911412,0.067197,1.028538,9.750962,50.861226,6.280554
0.020000,0.091410,0.911334,0.092073,1.243781,10.762162,50.560007,6.279602
0.020000,0.120993,0.911212,0.121655,1.479133,11.767585,50.271153,6.278493
0.020000,0.155477,0.911028,0.156140,1.724230,12.254876,24.364557,6.277230
0.020000,0.194849,0.910766,0.195513,1.968648,12.220901,-1.698733,6.275828
0.020000,0.239095,0.910407,0.239760,2.212351,12.185140,-1.788062,6.274303
0.020000,0.288197,0.909930,0.288864,2.455218,12.143363,-2.088856,6.272674
0.020000,0.342138,0.909317,0.342809,2.697220,12.100071,-2.164603,6.270959
0.020000,0.400897,0.908545,0.401573,2.938213,12.049651,-2.520984,6.269180
0.020000,0.464454,0.907597,0.465137,3.178205,11.999636,-2.500774,6.267359
0.020000,0.532786,0.906452,0.533479,3.417090,11.944253,-2.769137,6.265522
0.020000,0.605869,0.905093,0.606574,3.654769,11.883940,-3.015659,6.263693
0.020000,0.683678,0.903505,0.684399,3.891248,11.823915,-3.001250,6.261900
0.020000,0.766185,0.901676,0.766927,4.126404,11.757818,-3.304844,6.260171
0.020000,0.853365,0.899597,0.854132,4.360213,11.690449,-3.368437,6.258537
0.020000,0.945187,0.897262,0.945983,4.592583,11.618519,-3.596520,6.257028
0.020000,1.041622,0.894672,1.042453,4.823475,11.544578,-3.697057,6.255677
0.020000,1.142637,0.891832,1.143509,5.052791,11.465807,-3.938527,6.254518
0.020000,1.248202,0.888753,1.249118,5.280475,11.384191,-4.080805,6.253589
0.020000,1.358282,0.885455,1.359247,5.506447,11.298622,-4.278459,6.252925
0.020000,1.472841,0.881963,1.473859,5.730608,11.208040,-4.529100,6.252567
0.020000,1.591842,0.878314,1.592916,5.952861,11.112656,-4.769163,6.252556
0.020000,1.715246,0.874553,1.716378,6.173092,11.011536,-5.056017,6.252938
0.020000,1.843013,0.870735,1.844202,6.391169,10.903877,-5.382963,6.253758
0.020000,1.975097,0.866928,1.976340,6.606938,10.788454,-5.771167,6.255069
0.020000,2.111451,0.863214,2.112745,6.820227,10.664418,-6.201753,6.256924
0.020000,2.252023,0.859688,2.253362,7.030843,10.530794,-6.681213,6.259382
0.020000,2.396758,0.856461,2.398132,7.238515,10.383635,-7.357971,6.262507
0.020000,2.545591,0.853662,2.546992,7.443001,10.224277,-7.967898,6.266370
0.020000,2.698454,0.851440,2.699871,7.643954,10.047636,-8.832047,6.271048
0.020000,2.855267,0.849963,2.856691,7.841012,9.852906,-9.736499,6.276626
0.020000,3.015940,0.849425,3.017365,8.033691,9.633962,-10.947195,0.000014
0.020000,3.180370,0.850045,3.181796,8.221550,9.392948,-12.050712,0.007691
0.020000,3.348248,0.852067,3.349686,8.394495,8.647274,-37.283689,0.016580
0.020000,3.519061,0.855755,3.520539,8.542625,7.406480,-62.039725,0.026789
0.020000,3.692283,0.861386,3.693853,8.665706,6.154070,-62.620486,0.038433
0.020000,3.867375,0.869255,3.869121,8.763414,4.885382,-63.434406,0.051633
0.020000,4.043776,0.879663,4.045829,8.835392,3.598884,-64.324876,0.066519
0.020000,4.220906,0.892923,4.223455,8.881309,2.295861,-65.151136,0.083226
0.020000,4.398167,0.909348,4.401475,8.900973,0.983221,-65.632029,0.101897
0.020000,4.574931,0.929246,4.579355,8.894025,-0.347438,-66.532922,0.122677
0.020000,4.750551,0.952920,4.756564,8.860467,-1.677861,-66.521193,0.145717
0.020000,4.924361,0.980651,4.932572,8.800391,-3.003816,-66.297743,0.171163
0.020000,5.095673,1.012695,5.106855,8.714151,-4.312000,-65.409197,0.199153
0.020000,5.263790,1.049270,5.278905,8.602501,-5.582495,-63.524750,0.229809
0.020000,5.428179,1.090590,5.448407,8.475088,-6.370673,-39.408900,0.263260
0.020000,5.588458,1.136879,5.615236,8.341463,-6.681249,-15.528810,0.299641
0.020000,5.744240,1.188337,5.779297,8.203057,-6.920285,-11.951801,0.339058
0.020000,5.895148,1.245138,5.940541,8.062195,-7.043106,-6.141046,0.381563
0.020000,6.040832,1.307426,6.098982,7.922056,-7.006934,1.808617,0.427142
0.020000,6.180988,1.375320,6.254717,7.786748,-6.765389,12.077261,0.475688
0.020000,6.315378,1.448922,6.407942,7.661242,-6.275322,24.503329,0.526986
0.020000,6.443843,1.528322,6.558964,7.551078,-5.508183,38.356971,0.580699
0.020000,6.566197,1.613532,6.708066,7.455098,-4.799024,35.457955,0.636318
0.020000,6.682242,1.704457,6.855489,7.371172,-4.196276,30.137388,0.693160
0.020000,6.791871,1.800952,7.001537,7.302397,-3.438775,37.875033,0.750456
0.020000,6.895060,1.902821,7.146538,7.250027,-2.618486,41.014441,0.807414
0.020000,6.991830,2.009797,7.290788,7.212533,-1.874711,37.188776,0.863271
0.020000,7.082236,2.121520,7.434509,7.186007,-1.326307,27.420196,0.917354
0.020000,7.166352,2.237528,7.577802,7.164690,-1.065858,13.022470,0.969110
0.020000,7.244268,2.357249,7.720646,7.142160,-1.126484,-3.031294,1.018133
0.020000,7.316103,2.480016,7.862884,7.111937,-1.511164,-19.234042,1.064156
0.020000,7.382001,2.605077,8.004246,7.068070,-2.193324,-34.107987,1.107042
0.020000,7.442147,2.731628,8.144362,7.005798,-3.113621,-46.014824,1.146761
0.020000,7.496756,2.858828,8.282789,6.921385,-4.220633,-55.350643,1.183361
0.020000,7.546133,2.985973,8.419185,6.819784,-5.080066,-42.971630,1.216985
0.020000,7.590647,3.112532,8.553344,6.707943,-5.592039,-25.598641,1.247842
0.020000,7.630660,3.238030,8.685066,6.586131,-6.090593,-24.927719,1.276147
0.020000,7.666525,3.362043,8.814161,6.454744,-6.569344,-23.937542,1.302113
0.020000,7.698580,3.484188,8.940443,6.314059,-7.034276,-23.246610,1.325940
0.020000,7.727146,3.604131,9.063741,6.164902,-7.457856,-21.179009,1.347818
0.020000,7.752526,3.721576,9.183897,6.007803,-7.854945,-19.854406,1.367919
0.020000,7.775006,3.836263,9.300766,5.843484,-8.215921,-18.048813,1.386401
0.020000,7.794851,3.947969,9.414221,5.672732,-8.537633,-16.085604,1.403407
0.020000,7.812308,4.056494,9.524141,5.495989,-8.837132,-14.974972,1.419065
0.020000,7.827609,4.161673,9.630427,5.314303,-9.084279,-12.357344,1.433492
0.020000,7.840965,4.263349,9.732976,5.127476,-9.341387,-12.855388,1.446789
0.020000,7.852571,4.361393,9.831705,4.936428,-9.552369,-10.549099,1.459049
0.020000,7.862611,4.455702,9.926547,4.742124,-9.715217,-8.142393,1.470355
0.020000,7.871250,4.546171,10.017428,4.544014,-9.905476,-9.512970,1.480780
0.020000,7.878640,4.632719,10.104291,4.343171,-10.042146,-6.833470,1.490391
0.020000,7.884922,4.715270,10.187080,4.139447,-10.186212,-7.203336,1.499245
0.020000,7.890225,4.793762,10.265751,3.933563,-10.294229,-5.400839,1.507395
0.020000,7.894666,4.868137,10.340259,3.725364,-10.409926,-5.784828,1.514888
0.020000,7.898352,4.938350,10.410568,3.515494,-10.493528,-4.180092,1.521765
0.020000,7.901381,5.004351,10.476639,3.303542,-10.597588,-5.203042,1.528063
0.020000,7.903843,5.066107,10.538444,3.090220,-10.666087,-3.424940,1.533816
0.020000,7.905819,5.123591,10.595962,2.875925,-10.714732,-2.432230,1.539054
0.020000,7.907381,5.176770,10.649164,2.660074,-10.792574,-3.892097,1.543801
0.020000,7.908595,5.225616,10.698025,2.443058,-10.850808,-2.911700,1.548082
0.020000,7.909520,5.270115,10.742534,2.225455,-10.880124,-1.465829,1.551916
0.020000,7.910209,5.310245,10.782670,2.006785,-10.933505,-2.669017,1.555323
0.020000,7.910709,5.345993,10.818421,1.787561,-10.961189,-1.384223,1.558316
0.020000,7.911059,5.377345,10.849775,1.567717,-10.992244,-1.552732,1.560911
0.020000,7.911296,5.404288,10.876719,1.347207,-11.025492,-1.662394,1.563119
0.020000,7.911449,5.426988,10.899420,1.135019,-10.609386,20.805287,1.564963
0.020000,7.911545,5.445784,10.918215,0.939791,-9.761383,42.400152,1.566478
0.020000,7.911601,5.461043,10.933475,0.762957,-8.841741,45.982078,1.567702
0.020000,7.911633,5.473132,10.945563,0.604434,-7.926110,45.781566,1.568666
0.020000,7.911649,5.482426,10.954857,0.464701,-6.986650,46.973024,1.569405
0.020000,7.911657,5.489277,10.961709,0.342577,-6.106238,44.020601,1.569949
0.020000,7.911660,5.494069,10.966501,0.239583,-5.149664,47.828655,1.570328
0.020000,7.911661,5.497167,10.969598,0.154891,-4.234620,45.752232,1.570573
0.020000,7.911661,5.498939,10.971371,0.088609,-3.314115,46.025240,1.570713
0.020000,7.911661,5.499755,10.972187,0.040804,-2.390238,46.193834,1.570777
0.020000,7.911661,5.499985,10.972417,0.011512,-1.464569,46.283484,1.570795
0.020000,7.911661,5.500000,10.972432,0.000749,-0.538173,46.319771,1.570796
0.020000,7.911661,5.500000,10.972432,0.000000,-0.037449,25.036206,1.570796
